…
## NOTE:
## For transitory states like "infected", the count represents how many people are infected on that day.
## However, for a state like "dead", the count represents how many people total have died up until that point (because once you reach the "dead" state, you stay at that state forever).


# remove this later, printing just for debugging
population_to_visualize
```

    ## # A tibble: 331 x 3
    ## # Groups:   day [100]
    ##      day state                               count
    ##    <dbl> <chr>                               <int>
    ##  1     1 infected_symptomatic_pre_symptoms       1
    ##  2     1 succeptible                            19
    ##  3     2 infected_symptomatic_pre_symptoms       1
    ##  4     2 succeptible                            19
    ##  5     3 infected_symptomatic_pre_symptoms       1
    ##  6     3 succeptible                            19
    ##  7     4 infected_symptomatic_pre_symptoms       1
    ##  8     4 succeptible                            19
    ##  9     5 infectious_symptomatic_pre_symptoms     1
    ## 10     5 succeptible                            19
    ## # … with 321 more rows
…
